{
    "level1":{
        
            "avaliableEnemies":"1",
            "numberOfWaves":"5",
            "wave1":"8",
            "wave2":"8",
            "wave3":"8",
            "enemy1":"Dog",
            "levelContext":"1"
    },
    "level2":{
            "avaliableEnemies":"2",
            "numberOfWaves":"2",
            "wave1":"16",
            "wave2":"24",
            "enemy1":"Cooker",
            "enemy2":"Cooker",
            "levelContext":"2"
    },
    "level3":{
            "avaliableEnemies":"2",
            "numberOfWaves":"5",
            "wave1":"8",
            "wave2":"8",
            "wave3":"8",
            "enemy1":"Drunk",
            "enemy2":"Drunk",
            "levelContext":"3"
    },
    "level4":{
            "avaliableEnemies":"2",
            "numberOfWaves":"3",
            "wave1":"8",
            "wave2":"16",
            "wave3":"8",
            "enemy1":"Prisoner",
            "enemy2":"Ghost",
            "levelContext":"4"
    },
    "level5":{
            "avaliableEnemies":"2",
            "numberOfWaves":"3",
            "wave1":"8",
            "wave2":"16",
            "wave3":"8",
            "enemy1":"Frentista",
            "enemy2":"Motoqueiro",
            "levelContext":"5"
    },
    "level6":{
            "avaliableEnemies":"3",
            "numberOfWaves":"5",
            "wave1":"8",
            "wave2":"8",
            "wave3":"8",
            "wave4":"16",
            "wave5":"24",
            "enemy1":"Fat_Cat",
            "enemy2":"Dog",
            "enemy3":"divorced_woman",
            "levelContext":"1"
    }

}